Workplace/CPU/CPU_tb.vcd
$date
	Wed Jan 29 21:56:19 2025
$end
$version
	Icarus Verilog
$end
$timescale
	1ps
$end
$scope module CPU_16bit $end
$var wire 1 ! clk $end
$var wire 16 " din [15:0] $end
$var wire 1 # resetn $end
$var wire 1 $ run $end
$var wire 1 % sub $end
$var wire 2 & state [1:0] $end
$var wire 3 ' rout [2:0] $end
$var wire 8 ( rin [7:0] $end
$var wire 16 ) r7 [15:0] $end
$var wire 16 * r6 [15:0] $end
$var wire 16 + r5 [15:0] $end
$var wire 16 , r4 [15:0] $end
$var wire 16 - r3 [15:0] $end
$var wire 16 . r2 [15:0] $end
$var wire 16 / r1 [15:0] $end
$var wire 16 0 r0 [15:0] $end
$var wire 1 1 gout $end
$var wire 1 2 gin $end
$var wire 1 3 done $end
$var wire 1 4 din_enable $end
$var wire 1 5 clear $end
$var wire 16 6 buswires [15:0] $end
$var wire 16 7 aluout [15:0] $end
$var wire 1 8 ain $end
$var wire 1 9 IRin $end
$var wire 9 : IR [8:0] $end
$scope module ALU_16bit $end
$var wire 1 ! clk $end
$var wire 1 % sub $end
$var wire 16 ; result [15:0] $end
$var wire 16 < raout [15:0] $end
$var wire 1 2 gin $end
$var wire 16 = buswires [15:0] $end
$var wire 16 > aluout [15:0] $end
$var wire 1 8 ain $end
$scope module addsub $end
$var wire 16 ? b_xor_sub [15:0] $end
$var wire 1 @ carry_in $end
$var wire 1 % sub $end
$var wire 16 A result [15:0] $end
$var wire 16 B raout [15:0] $end
$var wire 16 C buswires_A [15:0] $end
$upscope $end
$scope module reg_a $end
$var wire 1 ! clk $end
$var wire 1 8 rin $end
$var wire 16 D buswires [15:0] $end
$var reg 16 E Rout [15:0] $end
$upscope $end
$scope module reg_g $end
$var wire 16 F buswires [15:0] $end
$var wire 1 ! clk $end
$var wire 1 2 rin $end
$var reg 16 G Rout [15:0] $end
$upscope $end
$upscope $end
$scope module control_unit $end
$var wire 1 # resetn $end
$var wire 1 $ run $end
$var wire 2 H state [1:0] $end
$var wire 3 I ry [2:0] $end
$var wire 3 J rx [2:0] $end
$var wire 3 K opcode [2:0] $end
$var wire 9 L IR [8:0] $end
$var parameter 3 M add_state $end
$var parameter 3 N mv $end
$var parameter 3 O mvi $end
$var parameter 2 P state_0 $end
$var parameter 2 Q state_1 $end
$var parameter 2 R state_2 $end
$var parameter 2 S state_3 $end
$var parameter 3 T sub_state $end
$var reg 1 9 IRin $end
$var reg 1 8 ain $end
$var reg 1 5 clear $end
$var reg 1 4 din_enable $end
$var reg 1 3 done $end
$var reg 1 2 gin $end
$var reg 1 1 gout $end
$var reg 8 U rin [7:0] $end
$var reg 3 V rout [2:0] $end
$var reg 1 % sub $end
$scope function rin_mux $end
$var reg 3 W rx [2:0] $end
$upscope $end
$upscope $end
$scope module counter_2bit $end
$var wire 1 ! clk $end
$var wire 1 5 clr $end
$var reg 2 X state [1:0] $end
$upscope $end
$scope module intr_reg $end
$var wire 1 9 IRin $end
$var wire 1 ! clk $end
$var wire 16 Y din [15:0] $end
$var reg 9 Z IR_out [8:0] $end
$upscope $end
$scope module mux $end
$var wire 16 [ aluout [15:0] $end
$var wire 16 \ din [15:0] $end
$var wire 1 4 din_enable $end
$var wire 1 1 gout $end
$var wire 3 ] rout [2:0] $end
$var wire 16 ^ r7 [15:0] $end
$var wire 16 _ r6 [15:0] $end
$var wire 16 ` r5 [15:0] $end
$var wire 16 a r4 [15:0] $end
$var wire 16 b r3 [15:0] $end
$var wire 16 c r2 [15:0] $end
$var wire 16 d r1 [15:0] $end
$var wire 16 e r0 [15:0] $end
$var reg 16 f buswires [15:0] $end
$upscope $end
$scope module register0 $end
$var wire 16 g buswires [15:0] $end
$var wire 1 ! clk $end
$var wire 1 h rin $end
$var reg 16 i Rout [15:0] $end
$upscope $end
$scope module register1 $end
$var wire 16 j buswires [15:0] $end
$var wire 1 ! clk $end
$var wire 1 k rin $end
$var reg 16 l Rout [15:0] $end
$upscope $end
$scope module register2 $end
$var wire 16 m buswires [15:0] $end
$var wire 1 ! clk $end
$var wire 1 n rin $end
$var reg 16 o Rout [15:0] $end
$upscope $end
$scope module register3 $end
$var wire 16 p buswires [15:0] $end
$var wire 1 ! clk $end
$var wire 1 q rin $end
$var reg 16 r Rout [15:0] $end
$upscope $end
$scope module register4 $end
$var wire 16 s buswires [15:0] $end
$var wire 1 ! clk $end
$var wire 1 t rin $end
$var reg 16 u Rout [15:0] $end
$upscope $end
$scope module register5 $end
$var wire 16 v buswires [15:0] $end
$var wire 1 ! clk $end
$var wire 1 w rin $end
$var reg 16 x Rout [15:0] $end
$upscope $end
$scope module register6 $end
$var wire 16 y buswires [15:0] $end
$var wire 1 ! clk $end
$var wire 1 z rin $end
$var reg 16 { Rout [15:0] $end
$upscope $end
$scope module register7 $end
$var wire 16 | buswires [15:0] $end
$var wire 1 ! clk $end
$var wire 1 } rin $end
$var reg 16 ~ Rout [15:0] $end
$upscope $end
$upscope $end
$enddefinitions $end
$comment Show the parameter values. $end
$dumpall
b11 T
b11 S
b10 R
b1 Q
b0 P
b1 O
b0 N
b10 M
$end
#0
$dumpvars
bx ~
0}
bx |
bx {
0z
bx y
bx x
0w
bx v
bx u
0t
bx s
bx r
0q
bx p
bx o
0n
bx m
bx l
0k
bx j
bx i
0h
bx g
bx f
bx e
bx d
bx c
bx b
bx a
bx `
bx _
bx ^
b0 ]
b1000000 \
bx [
bx Z
b1000000 Y
b0 X
bx W
b0 V
b0 U
bx L
bx K
bx J
bx I
b0 H
bx G
bx F
bx E
bx D
bx C
bx B
bx A
0@
bx ?
bx >
bx =
bx <
bx ;
bx :
09
08
bx 7
bx 6
15
04
03
02
01
bx 0
bx /
bx .
bx -
bx ,
bx +
bx *
bx )
b0 (
b0 '
b0 &
0%
0$
0#
b1000000 "
1!
$end
#5000
0!
#10000
1#
1!
#15000
0!
#20000
19
05
1$
1!
#25000
0!
#30000
b1010 "
b1010 Y
b1010 \
b1010 ?
b1010 6
b1010 =
b1010 C
b1010 D
b1010 f
b1010 g
b1010 j
b1010 m
b1010 p
b1010 s
b1010 v
b1010 y
b1010 |
1h
13
14
15
b1 (
b1 U
b0 W
b0 I
b0 J
b1 K
b1 &
b1 H
b1 X
b1000000 :
b1000000 L
b1000000 Z
1!
#35000
0!
#40000
b1001000 "
b1001000 Y
b1001000 \
b10 I
b1 J
b0 K
04
03
05
b1010 :
b1010 L
b1010 Z
b1010 0
b1010 e
b1010 i
b0 &
b0 H
b0 X
1!
#45000
0!
#50000
b1000 "
b1000 Y
b1000 \
b1000 ?
1k
0h
b1000 6
b1000 =
b1000 C
b1000 D
b1000 f
b1000 g
b1000 j
b1000 m
b1000 p
b1000 s
b1000 v
b1000 y
b1000 |
13
14
15
b10 (
b10 U
b1 W
b1 '
b1 V
b1 ]
b0 I
b1 K
b1 &
b1 H
b1 X
b1001000 :
b1001000 L
b1001000 Z
1!
#55000
0!
#60000
b1010000 "
b1010000 Y
b1010000 \
b0 K
04
03
05
b1000 :
b1000 L
b1000 Z
b1000 /
b1000 d
b1000 l
b0 &
b0 H
b0 X
1!
#65000
0!
#70000
b110 "
b110 Y
b110 \
b110 ?
1n
0k
b110 6
b110 =
b110 C
b110 D
b110 f
b110 g
b110 j
b110 m
b110 p
b110 s
b110 v
b110 y
b110 |
13
14
15
b100 (
b100 U
b10 W
b10 '
b10 V
b10 ]
b10 J
b1 K
b1 &
b1 H
b1 X
b1010000 :
b1010000 L
b1010000 Z
1!
#75000
0!
#80000
b1011000 "
b1011000 Y
b1011000 \
b110 I
b0 J
b0 K
04
03
05
b110 :
b110 L
b110 Z
b110 .
b110 c
b110 o
b0 &
b0 H
b0 X
1!
#85000
0!
#90000
b10 "
b10 Y
b10 \
b10 ?
1q
0n
b10 6
b10 =
b10 C
b10 D
b10 f
b10 g
b10 j
b10 m
b10 p
b10 s
b10 v
b10 y
b10 |
13
14
15
b1000 (
b1000 U
b11 W
b11 '
b11 V
b11 ]
b0 I
b11 J
b1 K
b1 &
b1 H
b1 X
b1011000 :
b1011000 L
b1011000 Z
1!
#95000
0!
#100000
b1100000 "
b1100000 Y
b1100000 \
b10 I
b0 J
b0 K
04
03
05
b10 :
b10 L
b10 Z
b10 -
b10 b
b10 r
b0 &
b0 H
b0 X
1!
#105000
0!
#110000
b1111111111111111 "
b1111111111111111 Y
b1111111111111111 \
b1111111111111111 ?
1t
0q
b1111111111111111 6
b1111111111111111 =
b1111111111111111 C
b1111111111111111 D
b1111111111111111 f
b1111111111111111 g
b1111111111111111 j
b1111111111111111 m
b1111111111111111 p
b1111111111111111 s
b1111111111111111 v
b1111111111111111 y
b1111111111111111 |
13
14
15
b10000 (
b10000 U
b100 W
b100 '
b100 V
b100 ]
b0 I
b100 J
b1 K
b1 &
b1 H
b1 X
b1100000 :
b1100000 L
b1100000 Z
1!
#115000
0!
#120000
b1101000 "
b1101000 Y
b1101000 \
b111 I
b111 J
b111 K
04
03
05
b111111111 :
b111111111 L
b111111111 Z
b1111111111111111 ,
b1111111111111111 a
b1111111111111111 u
b0 &
b0 H
b0 X
1!
#125000
0!
#130000
b1110111011101110 "
b1110111011101110 Y
b1110111011101110 \
b1110111011101110 ?
1w
0t
b1110111011101110 6
b1110111011101110 =
b1110111011101110 C
b1110111011101110 D
b1110111011101110 f
b1110111011101110 g
b1110111011101110 j
b1110111011101110 m
b1110111011101110 p
b1110111011101110 s
b1110111011101110 v
b1110111011101110 y
b1110111011101110 |
13
14
15
b100000 (
b100000 U
b101 W
b101 '
b101 V
b101 ]
b0 I
b101 J
b1 K
b1 &
b1 H
b1 X
b1101000 :
b1101000 L
b1101000 Z
1!
#135000
0!
#140000
b1110000 "
b1110000 Y
b1110000 \
b110 I
b11 K
04
03
05
b11101110 :
b11101110 L
b11101110 Z
b1110111011101110 +
b1110111011101110 `
b1110111011101110 x
b0 &
b0 H
b0 X
1!
#145000
0!
#150000
b1100110011001100 "
b1100110011001100 Y
b1100110011001100 \
b1100110011001100 ?
1z
0w
b1100110011001100 6
b1100110011001100 =
b1100110011001100 C
b1100110011001100 D
b1100110011001100 f
b1100110011001100 g
b1100110011001100 j
b1100110011001100 m
b1100110011001100 p
b1100110011001100 s
b1100110011001100 v
b1100110011001100 y
b1100110011001100 |
13
14
15
b1000000 (
b1000000 U
b110 W
b110 '
b110 V
b110 ]
b0 I
b110 J
b1 K
b1 &
b1 H
b1 X
b1110000 :
b1110000 L
b1110000 Z
1!
#155000
0!
#160000
b1111000 "
b1111000 Y
b1111000 \
b100 I
b1 J
b11 K
04
03
05
b11001100 :
b11001100 L
b11001100 Z
b1100110011001100 *
b1100110011001100 _
b1100110011001100 {
b0 &
b0 H
b0 X
1!
#165000
0!
#170000
b1101110111011101 "
b1101110111011101 Y
b1101110111011101 \
b1101110111011101 ?
1}
0z
b1101110111011101 6
b1101110111011101 =
b1101110111011101 C
b1101110111011101 D
b1101110111011101 f
b1101110111011101 g
b1101110111011101 j
b1101110111011101 m
b1101110111011101 p
b1101110111011101 s
b1101110111011101 v
b1101110111011101 y
b1101110111011101 |
13
14
15
b10000000 (
b10000000 U
b111 W
b111 '
b111 V
b111 ]
b0 I
b111 J
b1 K
b1 &
b1 H
b1 X
b1111000 :
b1111000 L
b1111000 Z
1!
#175000
0!
#180000
b111000 "
b111000 Y
b111000 \
b101 I
b11 J
b111 K
04
03
05
b111011101 :
b111011101 L
b111011101 Z
b1101110111011101 )
b1101110111011101 ^
b1101110111011101 ~
b0 &
b0 H
b0 X
1!
#185000
0!
#190000
b1010 ?
b1010 6
b1010 =
b1010 C
b1010 D
b1010 f
b1010 g
b1010 j
b1010 m
b1010 p
b1010 s
b1010 v
b1010 y
b1010 |
13
15
b0 '
b0 V
b0 ]
b0 I
b111 J
b0 K
b1 &
b1 H
b1 X
b111000 :
b111000 L
b111000 Z
1!
#195000
0!
#200000
b110001 "
b110001 Y
b110001 \
03
05
b1010 )
b1010 ^
b1010 ~
b0 &
b0 H
b0 X
1!
#205000
0!
#210000
b1000 ?
0}
1z
b1000 6
b1000 =
b1000 C
b1000 D
b1000 f
b1000 g
b1000 j
b1000 m
b1000 p
b1000 s
b1000 v
b1000 y
b1000 |
13
15
b1000000 (
b1000000 U
b110 W
b1 '
b1 V
b1 ]
b1 I
b110 J
b1 &
b1 H
b1 X
b110001 :
b110001 L
b110001 Z
1!
#215000
0!
#220000
b101010 "
b101010 Y
b101010 \
03
05
b1000 *
b1000 _
b1000 {
b0 &
b0 H
b0 X
1!
#225000
0!
#230000
b110 ?
0z
1w
b110 6
b110 =
b110 C
b110 D
b110 f
b110 g
b110 j
b110 m
b110 p
b110 s
b110 v
b110 y
b110 |
13
15
b100000 (
b100000 U
b101 W
b10 '
b10 V
b10 ]
b10 I
b101 J
b1 &
b1 H
b1 X
b101010 :
b101010 L
b101010 Z
1!
#235000
0!
#240000
b100011 "
b100011 Y
b100011 \
03
05
b110 +
b110 `
b110 x
b0 &
b0 H
b0 X
1!
#245000
0!
#250000
b10 ?
0w
1t
b10 6
b10 =
b10 C
b10 D
b10 f
b10 g
b10 j
b10 m
b10 p
b10 s
b10 v
b10 y
b10 |
13
15
b10000 (
b10000 U
b100 W
b11 '
b11 V
b11 ]
b11 I
b100 J
b1 &
b1 H
b1 X
b100011 :
b100011 L
b100011 Z
1!
#255000
0!
#260000
b11111 "
b11111 Y
b11111 \
03
05
b10 ,
b10 a
b10 u
b0 &
b0 H
b0 X
1!
#265000
0!
#270000
b1010 ?
0t
1q
b1010 6
b1010 =
b1010 C
b1010 D
b1010 f
b1010 g
b1010 j
b1010 m
b1010 p
b1010 s
b1010 v
b1010 y
b1010 |
13
15
b1000 (
b1000 U
b11 W
b111 '
b111 V
b111 ]
b111 I
b11 J
b1 &
b1 H
b1 X
b11111 :
b11111 L
b11111 Z
1!
#275000
0!
#280000
b10110 "
b10110 Y
b10110 \
03
05
b1010 -
b1010 b
b1010 r
b0 &
b0 H
b0 X
1!
#285000
0!
#290000
b1000 ?
0q
1n
b1000 6
b1000 =
b1000 C
b1000 D
b1000 f
b1000 g
b1000 j
b1000 m
b1000 p
b1000 s
b1000 v
b1000 y
b1000 |
13
15
b100 (
b100 U
b10 W
b110 '
b110 V
b110 ]
b110 I
b10 J
b1 &
b1 H
b1 X
b10110 :
b10110 L
b10110 Z
1!
#295000
0!
#300000
b1101 "
b1101 Y
b1101 \
03
05
b1000 .
b1000 c
b1000 o
b0 &
b0 H
b0 X
1!
#305000
0!
#310000
b110 ?
0n
1k
b110 6
b110 =
b110 C
b110 D
b110 f
b110 g
b110 j
b110 m
b110 p
b110 s
b110 v
b110 y
b110 |
13
15
b10 (
b10 U
b1 W
b101 '
b101 V
b101 ]
b101 I
b1 J
b1 &
b1 H
b1 X
b1101 :
b1101 L
b1101 Z
1!
#315000
0!
#320000
b100 "
b100 Y
b100 \
03
05
b110 /
b110 d
b110 l
b0 &
b0 H
b0 X
1!
#325000
0!
#330000
b10 ?
0k
1h
b10 6
b10 =
b10 C
b10 D
b10 f
b10 g
b10 j
b10 m
b10 p
b10 s
b10 v
b10 y
b10 |
13
15
b1 (
b1 U
b0 W
b100 '
b100 V
b100 ]
b100 I
b0 J
b1 &
b1 H
b1 X
b100 :
b100 L
b100 Z
1!
#335000
0!
#340000
b10000001 "
b10000001 Y
b10000001 \
03
05
b10 0
b10 e
b10 i
b0 &
b0 H
b0 X
1!
#345000
0!
#350000
09
18
b0 '
b0 V
b0 ]
b1 I
b10 K
b1 &
b1 H
b1 X
b10000001 :
b10000001 L
b10000001 Z
1!
#355000
0!
#360000
b110 ?
b110 6
b110 =
b110 C
b110 D
b110 f
b110 g
b110 j
b110 m
b110 p
b110 s
b110 v
b110 y
b110 |
12
b1 '
b1 V
b1 ]
08
b1000 ;
b1000 A
b1000 F
b10 <
b10 B
b10 E
b10 &
b10 H
b10 X
1!
#365000
0!
#370000
b1010 ;
b1010 A
b1010 F
b1000 ?
b1000 6
b1000 =
b1000 C
b1000 D
b1000 f
b1000 g
b1000 j
b1000 m
b1000 p
b1000 s
b1000 v
b1000 y
b1000 |
b0 '
b0 V
b0 ]
02
13
15
11
b11 &
b11 H
b11 X
b110 0
b110 e
b110 i
b1000 7
b1000 >
b1000 G
b1000 [
1!
#375000
0!
#380000
b10001010 "
b10001010 Y
b10001010 \
01
19
03
05
b1000 0
b1000 e
b1000 i
b0 &
b0 H
b0 X
1!
#385000
0!
#390000
b1000 ;
b1000 A
b1000 F
b110 ?
1k
0h
b110 6
b110 =
b110 C
b110 D
b110 f
b110 g
b110 j
b110 m
b110 p
b110 s
b110 v
b110 y
b110 |
09
18
b10 (
b10 U
b1 W
b1 '
b1 V
b1 ]
b10 I
b1 J
b1 &
b1 H
b1 X
b10001010 :
b10001010 L
b10001010 Z
1!
#395000
0!
#400000
b1000 ?
b1000 6
b1000 =
b1000 C
b1000 D
b1000 f
b1000 g
b1000 j
b1000 m
b1000 p
b1000 s
b1000 v
b1000 y
b1000 |
12
b10 '
b10 V
b10 ]
08
b1110 ;
b1110 A
b1110 F
b110 <
b110 B
b110 E
b10 &
b10 H
b10 X
1!
#405000
0!
#410000
b10100 ;
b10100 A
b10100 F
b1110 ?
b1110 6
b1110 =
b1110 C
b1110 D
b1110 f
b1110 g
b1110 j
b1110 m
b1110 p
b1110 s
b1110 v
b1110 y
b1110 |
b1 '
b1 V
b1 ]
02
13
15
11
b11 &
b11 H
b11 X
b1000 /
b1000 d
b1000 l
b1110 7
b1110 >
b1110 G
b1110 [
1!
#415000
0!
#420000
b10010011 "
b10010011 Y
b10010011 \
01
19
03
05
b1110 /
b1110 d
b1110 l
b0 &
b0 H
b0 X
1!
#425000
0!
#430000
b1110 ;
b1110 A
b1110 F
b1000 ?
1n
0k
b1000 6
b1000 =
b1000 C
b1000 D
b1000 f
b1000 g
b1000 j
b1000 m
b1000 p
b1000 s
b1000 v
b1000 y
b1000 |
09
18
b100 (
b100 U
b10 W
b10 '
b10 V
b10 ]
b11 I
b10 J
b1 &
b1 H
b1 X
b10010011 :
b10010011 L
b10010011 Z
1!
#435000
0!
#440000
b1010 ?
b1010 6
b1010 =
b1010 C
b1010 D
b1010 f
b1010 g
b1010 j
b1010 m
b1010 p
b1010 s
b1010 v
b1010 y
b1010 |
12
b11 '
b11 V
b11 ]
08
b10010 ;
b10010 A
b10010 F
b1000 <
b1000 B
b1000 E
b10 &
b10 H
b10 X
1!
#445000
0!
#450000
b11010 ;
b11010 A
b11010 F
b10010 ?
b10010 6
b10010 =
b10010 C
b10010 D
b10010 f
b10010 g
b10010 j
b10010 m
b10010 p
b10010 s
b10010 v
b10010 y
b10010 |
b10 '
b10 V
b10 ]
02
13
15
11
b11 &
b11 H
b11 X
b1010 .
b1010 c
b1010 o
b10010 7
b10010 >
b10010 G
b10010 [
1!
#455000
0!
#460000
b10011100 "
b10011100 Y
b10011100 \
01
19
03
05
b10010 .
b10010 c
b10010 o
b0 &
b0 H
b0 X
1!
#465000
0!
#470000
b10010 ;
b10010 A
b10010 F
b1010 ?
1q
0n
b1010 6
b1010 =
b1010 C
b1010 D
b1010 f
b1010 g
b1010 j
b1010 m
b1010 p
b1010 s
b1010 v
b1010 y
b1010 |
09
18
b1000 (
b1000 U
b11 W
b11 '
b11 V
b11 ]
b100 I
b11 J
b1 &
b1 H
b1 X
b10011100 :
b10011100 L
b10011100 Z
1!
#475000
0!
#480000
b10 ?
b10 6
b10 =
b10 C
b10 D
b10 f
b10 g
b10 j
b10 m
b10 p
b10 s
b10 v
b10 y
b10 |
12
b100 '
b100 V
b100 ]
08
b1100 ;
b1100 A
b1100 F
b1010 <
b1010 B
b1010 E
b10 &
b10 H
b10 X
1!
#485000
0!
#490000
b10110 ;
b10110 A
b10110 F
b1100 ?
b1100 6
b1100 =
b1100 C
b1100 D
b1100 f
b1100 g
b1100 j
b1100 m
b1100 p
b1100 s
b1100 v
b1100 y
b1100 |
b11 '
b11 V
b11 ]
02
13
15
11
b11 &
b11 H
b11 X
b10 -
b10 b
b10 r
b1100 7
b1100 >
b1100 G
b1100 [
1!
#495000
0!
#500000
b10100101 "
b10100101 Y
b10100101 \
01
19
03
05
b1100 -
b1100 b
b1100 r
b0 &
b0 H
b0 X
1!
#505000
0!
#510000
b1100 ;
b1100 A
b1100 F
b10 ?
1t
0q
b10 6
b10 =
b10 C
b10 D
b10 f
b10 g
b10 j
b10 m
b10 p
b10 s
b10 v
b10 y
b10 |
09
18
b10000 (
b10000 U
b100 W
b100 '
b100 V
b100 ]
b101 I
b100 J
b1 &
b1 H
b1 X
b10100101 :
b10100101 L
b10100101 Z
1!
#515000
0!
#520000
b110 ?
b110 6
b110 =
b110 C
b110 D
b110 f
b110 g
b110 j
b110 m
b110 p
b110 s
b110 v
b110 y
b110 |
12
b101 '
b101 V
b101 ]
08
b1000 ;
b1000 A
b1000 F
b10 <
b10 B
b10 E
b10 &
b10 H
b10 X
1!
#525000
0!
#530000
b1010 ;
b1010 A
b1010 F
b1000 ?
b1000 6
b1000 =
b1000 C
b1000 D
b1000 f
b1000 g
b1000 j
b1000 m
b1000 p
b1000 s
b1000 v
b1000 y
b1000 |
b100 '
b100 V
b100 ]
02
13
15
11
b11 &
b11 H
b11 X
b110 ,
b110 a
b110 u
b1000 7
b1000 >
b1000 G
b1000 [
1!
#535000
0!
#540000
b10101110 "
b10101110 Y
b10101110 \
01
19
03
05
b1000 ,
b1000 a
b1000 u
b0 &
b0 H
b0 X
1!
#545000
0!
#550000
b1000 ;
b1000 A
b1000 F
b110 ?
1w
0t
b110 6
b110 =
b110 C
b110 D
b110 f
b110 g
b110 j
b110 m
b110 p
b110 s
b110 v
b110 y
b110 |
09
18
b100000 (
b100000 U
b101 W
b101 '
b101 V
b101 ]
b110 I
b101 J
b1 &
b1 H
b1 X
b10101110 :
b10101110 L
b10101110 Z
1!
#555000
0!
#560000
b1000 ?
b1000 6
b1000 =
b1000 C
b1000 D
b1000 f
b1000 g
b1000 j
b1000 m
b1000 p
b1000 s
b1000 v
b1000 y
b1000 |
12
b110 '
b110 V
b110 ]
08
b1110 ;
b1110 A
b1110 F
b110 <
b110 B
b110 E
b10 &
b10 H
b10 X
1!
#565000
0!
#570000
b10100 ;
b10100 A
b10100 F
b1110 ?
b1110 6
b1110 =
b1110 C
b1110 D
b1110 f
b1110 g
b1110 j
b1110 m
b1110 p
b1110 s
b1110 v
b1110 y
b1110 |
b101 '
b101 V
b101 ]
02
13
15
11
b11 &
b11 H
b11 X
b1000 +
b1000 `
b1000 x
b1110 7
b1110 >
b1110 G
b1110 [
1!
#575000
0!
#580000
b10110111 "
b10110111 Y
b10110111 \
01
19
03
05
b1110 +
b1110 `
b1110 x
b0 &
b0 H
b0 X
1!
#585000
0!
#590000
b1110 ;
b1110 A
b1110 F
b1000 ?
1z
0w
b1000 6
b1000 =
b1000 C
b1000 D
b1000 f
b1000 g
b1000 j
b1000 m
b1000 p
b1000 s
b1000 v
b1000 y
b1000 |
09
18
b1000000 (
b1000000 U
b110 W
b110 '
b110 V
b110 ]
b111 I
b110 J
b1 &
b1 H
b1 X
b10110111 :
b10110111 L
b10110111 Z
1!
#595000
0!
#600000
b1010 ?
b1010 6
b1010 =
b1010 C
b1010 D
b1010 f
b1010 g
b1010 j
b1010 m
b1010 p
b1010 s
b1010 v
b1010 y
b1010 |
12
b111 '
b111 V
b111 ]
08
b10010 ;
b10010 A
b10010 F
b1000 <
b1000 B
b1000 E
b10 &
b10 H
b10 X
1!
#605000
0!
#610000
b11010 ;
b11010 A
b11010 F
b10010 ?
b10010 6
b10010 =
b10010 C
b10010 D
b10010 f
b10010 g
b10010 j
b10010 m
b10010 p
b10010 s
b10010 v
b10010 y
b10010 |
b110 '
b110 V
b110 ]
02
13
15
11
b11 &
b11 H
b11 X
b1010 *
b1010 _
b1010 {
b10010 7
b10010 >
b10010 G
b10010 [
1!
#615000
0!
#620000
b10111000 "
b10111000 Y
b10111000 \
01
19
03
05
b10010 *
b10010 _
b10010 {
b0 &
b0 H
b0 X
1!
#625000
0!
#630000
b10010 ;
b10010 A
b10010 F
b1010 ?
1}
0z
b1010 6
b1010 =
b1010 C
b1010 D
b1010 f
b1010 g
b1010 j
b1010 m
b1010 p
b1010 s
b1010 v
b1010 y
b1010 |
09
18
b10000000 (
b10000000 U
b111 W
b111 '
b111 V
b111 ]
b0 I
b111 J
b1 &
b1 H
b1 X
b10111000 :
b10111000 L
b10111000 Z
1!
#635000
0!
#640000
b1000 ?
b1000 6
b1000 =
b1000 C
b1000 D
b1000 f
b1000 g
b1000 j
b1000 m
b1000 p
b1000 s
b1000 v
b1000 y
b1000 |
12
b0 '
b0 V
b0 ]
08
b10010 ;
b10010 A
b10010 F
b1010 <
b1010 B
b1010 E
b10 &
b10 H
b10 X
1!
#645000
0!
#650000
b11100 ;
b11100 A
b11100 F
b10010 ?
b10010 6
b10010 =
b10010 C
b10010 D
b10010 f
b10010 g
b10010 j
b10010 m
b10010 p
b10010 s
b10010 v
b10010 y
b10010 |
b111 '
b111 V
b111 ]
02
13
15
11
b11 &
b11 H
b11 X
b1000 )
b1000 ^
b1000 ~
1!
#655000
0!
#660000
b11111110 "
b11111110 Y
b11111110 \
01
19
03
05
b10010 )
b10010 ^
b10010 ~
b0 &
b0 H
b0 X
1!
#665000
0!
#670000
09
18
b110 I
b11 K
b1 &
b1 H
b1 X
b11111110 :
b11111110 L
b11111110 Z
1!
#675000
0!
#680000
b1111111111101101 ?
12
1@
1%
b110 '
b110 V
b110 ]
08
b0 ;
b0 A
b0 F
b10010 <
b10010 B
b10010 E
b10 &
b10 H
b10 X
1!
#685000
0!
#690000
b10010 ;
b10010 A
b10010 F
b1111111111111111 ?
b0 6
b0 =
b0 C
b0 D
b0 f
b0 g
b0 j
b0 m
b0 p
b0 s
b0 v
b0 y
b0 |
b111 '
b111 V
b111 ]
02
13
15
11
b11 &
b11 H
b11 X
b0 7
b0 >
b0 G
b0 [
1!
#695000
0!
#700000
b11110101 "
b11110101 Y
b11110101 \
b0 ?
b10010 ;
b10010 A
b10010 F
0@
0%
01
19
03
05
b0 )
b0 ^
b0 ~
b0 &
b0 H
b0 X
1!
#705000
0!
#710000
b100100 ;
b100100 A
b100100 F
b10010 ?
0}
1z
b10010 6
b10010 =
b10010 C
b10010 D
b10010 f
b10010 g
b10010 j
b10010 m
b10010 p
b10010 s
b10010 v
b10010 y
b10010 |
09
18
b1000000 (
b1000000 U
b110 W
b110 '
b110 V
b110 ]
b101 I
b110 J
b1 &
b1 H
b1 X
b11110101 :
b11110101 L
b11110101 Z
1!
#715000
0!
#720000
b1111111111110001 ?
b1110 6
b1110 =
b1110 C
b1110 D
b1110 f
b1110 g
b1110 j
b1110 m
b1110 p
b1110 s
b1110 v
b1110 y
b1110 |
12
b100 ;
b100 A
b100 F
1@
1%
b101 '
b101 V
b101 ]
08
b10 &
b10 H
b10 X
1!
#725000
0!
#730000
b1110 ;
b1110 A
b1110 F
b1111111111111011 ?
b100 6
b100 =
b100 C
b100 D
b100 f
b100 g
b100 j
b100 m
b100 p
b100 s
b100 v
b100 y
b100 |
b110 '
b110 V
b110 ]
02
13
15
11
b11 &
b11 H
b11 X
b1110 *
b1110 _
b1110 {
b100 7
b100 >
b100 G
b100 [
1!
#735000
0!
#740000
b11101100 "
b11101100 Y
b11101100 \
b100 ?
b10110 ;
b10110 A
b10110 F
0@
0%
01
19
03
05
b100 *
b100 _
b100 {
b0 &
b0 H
b0 X
1!
#745000
0!
#750000
b100000 ;
b100000 A
b100000 F
b1110 ?
0z
1w
b1110 6
b1110 =
b1110 C
b1110 D
b1110 f
b1110 g
b1110 j
b1110 m
b1110 p
b1110 s
b1110 v
b1110 y
b1110 |
09
18
b100000 (
b100000 U
b101 W
b101 '
b101 V
b101 ]
b100 I
b101 J
b1 &
b1 H
b1 X
b11101100 :
b11101100 L
b11101100 Z
1!
#755000
0!
#760000
b1111111111110111 ?
b1000 6
b1000 =
b1000 C
b1000 D
b1000 f
b1000 g
b1000 j
b1000 m
b1000 p
b1000 s
b1000 v
b1000 y
b1000 |
12
1@
1%
b100 '
b100 V
b100 ]
08
b110 ;
b110 A
b110 F
b1110 <
b1110 B
b1110 E
b10 &
b10 H
b10 X
1!
#765000
0!
#770000
b1000 ;
b1000 A
b1000 F
b1111111111111001 ?
b110 6
b110 =
b110 C
b110 D
b110 f
b110 g
b110 j
b110 m
b110 p
b110 s
b110 v
b110 y
b110 |
b101 '
b101 V
b101 ]
02
13
15
11
b11 &
b11 H
b11 X
b1000 +
b1000 `
b1000 x
b110 7
b110 >
b110 G
b110 [
1!
#775000
0!
#780000
b11011100 "
b11011100 Y
b11011100 \
b110 ?
b10100 ;
b10100 A
b10100 F
0@
0%
01
19
03
05
b110 +
b110 `
b110 x
b0 &
b0 H
b0 X
1!
#785000
0!
#790000
b11010 ;
b11010 A
b11010 F
b1100 ?
0w
1q
b1100 6
b1100 =
b1100 C
b1100 D
b1100 f
b1100 g
b1100 j
b1100 m
b1100 p
b1100 s
b1100 v
b1100 y
b1100 |
09
18
b1000 (
b1000 U
b11 W
b11 '
b11 V
b11 ]
b11 J
b1 &
b1 H
b1 X
b11011100 :
b11011100 L
b11011100 Z
1!
#795000
0!
#800000
b1111111111110111 ?
b1000 6
b1000 =
b1000 C
b1000 D
b1000 f
b1000 g
b1000 j
b1000 m
b1000 p
b1000 s
b1000 v
b1000 y
b1000 |
12
1@
1%
b100 '
b100 V
b100 ]
08
b100 ;
b100 A
b100 F
b1100 <
b1100 B
b1100 E
b10 &
b10 H
b10 X
1!
#805000
0!
